[*] Tableros
  [*] Titulo
  [*] Fecha de creacion
  [*] Fondo
  [*] Miembros
  [*] Listas
    [*] Titulo
    [*] Posicion ?
    [*] Tarjetas
      [*] Titulo
      [*] Cuerpo
      [*] Posicion ?
      [*] Owner
      [*] Fecha de creacion
      [*] Fecha de ultima modificacion
      [*] Miembros asignados
      [*] Comentarios
        [*] Owner
        [*] Cuerpo
        [*] Fecha de creacion